Lab 6 ESS-330
…
collect_metrics(xgb_tune)

# A tibble: 40 × 10
   tree_depth learn_rate loss_reduction sample_size .metric .estimator  mean
        <int>      <dbl>          <dbl>       <dbl> <chr>   <chr>      <dbl>
 1          1    0.00616   0.0298             0.432 rmse    standard   0.504
 2          1    0.00616   0.0298             0.432 rsq     standard   0.823
 3          1    0.173     0.0000280          0.621 rmse    standard   0.556
 4          1    0.173     0.0000280          0.621 rsq     standard   0.786
 5          2    0.00455   0.00000695         0.905 rmse    standard   0.479
 6          2    0.00455   0.00000695         0.905 rsq     standard   0.838
 7          2    0.0153    0.0000000001       0.526 rmse    standard   0.503
 8          2    0.0153    0.0000000001       0.526 rsq     standard   0.823
 9          3    0.0280    0.00000173         0.1   rmse    standard   0.525
10          3    0.0280    0.00000173         0.1   rsq     standard   0.809
# ℹ 30 more rows
# ℹ 3 more variables: n <int>, std_err <dbl>, .config <chr>
…
